/Volumes/Dropbox/Dropbox/Owen/skunkworks/logicfiles/logic10_5_1/projectdatas/01_audio_trk
File is 98524 0x180DC bytes (from OS)
Type   Mystery 10                       effs                       staticmaybe        length                  
Song   03 00 ff ff ff ff ff ff ff ff    ff ff ff ff ff ff ff ff    02 00 00 00 01 00  84 0e 00 00 00 00 00 00 (3716 bytes)
MSeq   02 00 01 00 00 00 00 00 00 00    ff ff ff ff ff ff ff ff    02 00 00 00 01 00  2c 01 00 00 00 00 00 00 (300 bytes)
Trak   04 00 17 00 00 00 00 00 00 00    ff ff ff ff ff ff ff 7f    02 00 00 00 01 00  00 00 00 00 00 00 00 00 (0 bytes)
EvSq   01 00 01 00 00 00 00 00 00 00    00 00 00 00 ff ff ff ff    02 00 00 00 01 00  60 00 00 00 00 00 00 00 (96 bytes)
InSt   01 00 02 00 00 00 00 00 00 00    ff ff ff ff ff ff ff ff    02 00 00 00 01 00  40 00 00 00 00 00 00 00 (64 bytes)
MSeq   02 00 03 00 00 00 00 00 00 00    ff ff ff ff ff ff ff ff    02 00 00 00 01 00  2c 01 00 00 00 00 00 00 (300 bytes)
Trak   04 00 17 00 00 00 00 00 00 00    ff ff ff ff ff ff ff 7f    02 00 00 00 01 00  00 00 00 00 00 00 00 00 (0 bytes)
EvSq   01 00 03 00 00 00 00 00 00 00    01 00 00 00 ff ff ff ff    02 00 00 00 01 00  30 00 00 00 00 00 00 00 (48 bytes)
TxSt   01 00 04 00 00 00 00 00 00 00    ff ff ff ff ff ff ff ff    02 00 00 00 01 00  8e 00 00 00 00 00 00 00 (142 bytes)
TxSt   01 00 04 00 00 00 04 00 00 00    ff ff ff ff ff ff ff ff    02 00 00 00 01 00  90 00 00 00 00 00 00 00 (144 bytes)
TxSt   01 00 04 00 00 00 08 00 00 00    ff ff ff ff ff ff ff ff    02 00 00 00 01 00  90 00 00 00 00 00 00 00 (144 bytes)
TxSt   01 00 04 00 00 00 0c 00 00 00    ff ff ff ff ff ff ff ff    02 00 00 00 01 00  94 00 00 00 00 00 00 00 (148 bytes)
TxSt   01 00 04 00 00 00 10 00 00 00    ff ff ff ff ff ff ff ff    02 00 00 00 01 00  92 00 00 00 00 00 00 00 (146 bytes)
TxSt   01 00 04 00 00 00 14 00 00 00    ff ff ff ff ff ff ff ff    02 00 00 00 01 00  92 00 00 00 00 00 00 00 (146 bytes)
TxSt   01 00 04 00 00 00 18 00 00 00    ff ff ff ff ff ff ff ff    02 00 00 00 01 00  8e 00 00 00 00 00 00 00 (142 bytes)
TxSt   01 00 04 00 00 00 1c 00 00 00    ff ff ff ff ff ff ff ff    02 00 00 00 01 00  8e 00 00 00 00 00 00 00 (142 bytes)
TxSt   01 00 04 00 00 00 20 00 00 00    ff ff ff ff ff ff ff ff    02 00 00 00 01 00  90 00 00 00 00 00 00 00 (144 bytes)
TxSt   01 00 04 00 00 00 24 00 00 00    ff ff ff ff ff ff ff ff    02 00 00 00 01 00  8e 00 00 00 00 00 00 00 (142 bytes)
TxSt   01 00 04 00 00 00 28 00 00 00    ff ff ff ff ff ff ff ff    02 00 00 00 01 00  92 00 00 00 00 00 00 00 (146 bytes)
TxSt   01 00 04 00 00 00 2c 00 00 00    ff ff ff ff ff ff ff ff    02 00 00 00 01 00  98 00 00 00 00 00 00 00 (152 bytes)
TxSt   01 00 04 00 00 00 30 00 00 00    ff ff ff ff ff ff ff ff    02 00 00 00 01 00  8e 00 00 00 00 00 00 00 (142 bytes)
TxSt   01 00 04 00 00 00 34 00 00 00    ff ff ff ff ff ff ff ff    02 00 00 00 01 00  9a 00 00 00 00 00 00 00 (154 bytes)
TxSt   01 00 04 00 00 00 38 00 00 00    ff ff ff ff ff ff ff ff    02 00 00 00 01 00  94 00 00 00 00 00 00 00 (148 bytes)
TxSt   01 00 04 00 00 00 3c 00 00 00    ff ff ff ff ff ff ff ff    02 00 00 00 01 00  8e 00 00 00 00 00 00 00 (142 bytes)
TxSt   01 00 04 00 00 00 40 00 00 00    ff ff ff ff ff ff ff ff    02 00 00 00 01 00  8e 00 00 00 00 00 00 00 (142 bytes)
TxSt   01 00 04 00 00 00 44 00 00 00    ff ff ff ff ff ff ff ff    02 00 00 00 01 00  8e 00 00 00 00 00 00 00 (142 bytes)
TxSt   01 00 04 00 00 00 48 00 00 00    ff ff ff ff ff ff ff ff    02 00 00 00 01 00  8e 00 00 00 00 00 00 00 (142 bytes)
TxSt   01 00 04 00 00 00 4c 00 00 00    ff ff ff ff ff ff ff ff    02 00 00 00 01 00  8e 00 00 00 00 00 00 00 (142 bytes)
TxSt   01 00 04 00 00 00 50 00 00 00    ff ff ff ff ff ff ff ff    02 00 00 00 01 00  8e 00 00 00 00 00 00 00 (142 bytes)
TxSt   01 00 04 00 00 00 54 00 00 00    ff ff ff ff ff ff ff ff    02 00 00 00 01 00  8e 00 00 00 00 00 00 00 (142 bytes)
TxSt   01 00 04 00 00 00 58 00 00 00    ff ff ff ff ff ff ff ff    02 00 00 00 01 00  8e 00 00 00 00 00 00 00 (142 bytes)
TxSt   01 00 04 00 00 00 5c 00 00 00    ff ff ff ff ff ff ff ff    02 00 00 00 01 00  8e 00 00 00 00 00 00 00 (142 bytes)
TxSt   01 00 04 00 00 00 60 00 00 00    ff ff ff ff ff ff ff ff    02 00 00 00 01 00  8e 00 00 00 00 00 00 00 (142 bytes)
TxSt   01 00 04 00 00 00 64 00 00 00    ff ff ff ff ff ff ff ff    02 00 00 00 01 00  8e 00 00 00 00 00 00 00 (142 bytes)
TxSt   01 00 04 00 00 00 68 00 00 00    ff ff ff ff ff ff ff ff    02 00 00 00 01 00  8e 00 00 00 00 00 00 00 (142 bytes)
TxSt   01 00 04 00 00 00 6c 00 00 00    ff ff ff ff ff ff ff ff    02 00 00 00 01 00  8e 00 00 00 00 00 00 00 (142 bytes)
TxSt   01 00 04 00 00 00 70 00 00 00    ff ff ff ff ff ff ff ff    02 00 00 00 01 00  8e 00 00 00 00 00 00 00 (142 bytes)
TxSt   01 00 04 00 00 00 74 00 00 00    ff ff ff ff ff ff ff ff    02 00 00 00 01 00  8e 00 00 00 00 00 00 00 (142 bytes)
TxSt   01 00 04 00 00 00 78 00 00 00    ff ff ff ff ff ff ff ff    02 00 00 00 01 00  8e 00 00 00 00 00 00 00 (142 bytes)
TxSt   01 00 04 00 00 00 7c 00 00 00    ff ff ff ff ff ff ff ff    02 00 00 00 01 00  8e 00 00 00 00 00 00 00 (142 bytes)
Trns   01 00 0a 00 00 00 00 00 00 00    ff ff ff ff ff ff ff ff    02 00 00 00 01 00  ec 01 00 00 00 00 00 00 (492 bytes)
Styl   01 00 0c 00 00 00 00 00 00 00    ff ff ff ff ff ff ff ff    02 00 00 00 01 00  64 00 00 00 00 00 00 00 (100 bytes)
Styl   01 00 0c 00 00 00 04 00 00 00    ff ff ff ff ff ff ff ff    02 00 00 00 01 00  8c 00 00 00 00 00 00 00 (140 bytes)
Styl   01 00 0c 00 00 00 08 00 00 00    ff ff ff ff ff ff ff ff    02 00 00 00 01 00  90 00 00 00 00 00 00 00 (144 bytes)
Styl   01 00 0c 00 00 00 0c 00 00 00    ff ff ff ff ff ff ff ff    02 00 00 00 01 00  ba 00 00 00 00 00 00 00 (186 bytes)
Styl   01 00 0c 00 00 00 10 00 00 00    ff ff ff ff ff ff ff ff    02 00 00 00 01 00  ba 00 00 00 00 00 00 00 (186 bytes)
Styl   01 00 0c 00 00 00 14 00 00 00    ff ff ff ff ff ff ff ff    02 00 00 00 01 00  e4 00 00 00 00 00 00 00 (228 bytes)
Styl   01 00 0c 00 00 00 18 00 00 00    ff ff ff ff ff ff ff ff    02 00 00 00 01 00  ba 00 00 00 00 00 00 00 (186 bytes)
Styl   01 00 0c 00 00 00 1c 00 00 00    ff ff ff ff ff ff ff ff    02 00 00 00 01 00  ba 00 00 00 00 00 00 00 (186 bytes)
Styl   01 00 0c 00 00 00 20 00 00 00    ff ff ff ff ff ff ff ff    02 00 00 00 01 00  e4 00 00 00 00 00 00 00 (228 bytes)
Styl   01 00 0c 00 00 00 24 00 00 00    ff ff ff ff ff ff ff ff    02 00 00 00 01 00  e4 00 00 00 00 00 00 00 (228 bytes)
Styl   01 00 0c 00 00 00 28 00 00 00    ff ff ff ff ff ff ff ff    02 00 00 00 01 00  0e 01 00 00 00 00 00 00 (270 bytes)
Styl   01 00 0c 00 00 00 2c 00 00 00    ff ff ff ff ff ff ff ff    02 00 00 00 01 00  64 00 00 00 00 00 00 00 (100 bytes)
Styl   01 00 0c 00 00 00 30 00 00 00    ff ff ff ff ff ff ff ff    02 00 00 00 01 00  68 00 00 00 00 00 00 00 (104 bytes)
Styl   01 00 0c 00 00 00 34 00 00 00    ff ff ff ff ff ff ff ff    02 00 00 00 01 00  6c 00 00 00 00 00 00 00 (108 bytes)
Styl   01 00 0c 00 00 00 38 00 00 00    ff ff ff ff ff ff ff ff    02 00 00 00 01 00  6a 00 00 00 00 00 00 00 (106 bytes)
Styl   01 00 0c 00 00 00 3c 00 00 00    ff ff ff ff ff ff ff ff    02 00 00 00 01 00  68 00 00 00 00 00 00 00 (104 bytes)
Styl   01 00 0c 00 00 00 40 00 00 00    ff ff ff ff ff ff ff ff    02 00 00 00 01 00  68 00 00 00 00 00 00 00 (104 bytes)
Styl   01 00 0c 00 00 00 44 00 00 00    ff ff ff ff ff ff ff ff    02 00 00 00 01 00  66 00 00 00 00 00 00 00 (102 bytes)
Styl   01 00 0c 00 00 00 48 00 00 00    ff ff ff ff ff ff ff ff    02 00 00 00 01 00  6a 00 00 00 00 00 00 00 (106 bytes)
Styl   01 00 0c 00 00 00 4c 00 00 00    ff ff ff ff ff ff ff ff    02 00 00 00 01 00  68 00 00 00 00 00 00 00 (104 bytes)
Styl   01 00 0c 00 00 00 50 00 00 00    ff ff ff ff ff ff ff ff    02 00 00 00 01 00  66 00 00 00 00 00 00 00 (102 bytes)
Styl   01 00 0c 00 00 00 54 00 00 00    ff ff ff ff ff ff ff ff    02 00 00 00 01 00  6a 00 00 00 00 00 00 00 (106 bytes)
Styl   01 00 0c 00 00 00 58 00 00 00    ff ff ff ff ff ff ff ff    02 00 00 00 01 00  64 00 00 00 00 00 00 00 (100 bytes)
Styl   01 00 0c 00 00 00 5c 00 00 00    ff ff ff ff ff ff ff ff    02 00 00 00 01 00  6a 00 00 00 00 00 00 00 (106 bytes)
Styl   01 00 0c 00 00 00 60 00 00 00    ff ff ff ff ff ff ff ff    02 00 00 00 01 00  68 00 00 00 00 00 00 00 (104 bytes)
Styl   01 00 0c 00 00 00 64 00 00 00    ff ff ff ff ff ff ff ff    02 00 00 00 01 00  68 00 00 00 00 00 00 00 (104 bytes)
Styl   01 00 0c 00 00 00 68 00 00 00    ff ff ff ff ff ff ff ff    02 00 00 00 01 00  66 00 00 00 00 00 00 00 (102 bytes)
Styl   01 00 0c 00 00 00 6c 00 00 00    ff ff ff ff ff ff ff ff    02 00 00 00 01 00  04 01 00 00 00 00 00 00 (260 bytes)
Styl   01 00 0c 00 00 00 70 00 00 00    ff ff ff ff ff ff ff ff    02 00 00 00 01 00  64 00 00 00 00 00 00 00 (100 bytes)
Styl   01 00 0c 00 00 00 74 00 00 00    ff ff ff ff ff ff ff ff    02 00 00 00 01 00  90 00 00 00 00 00 00 00 (144 bytes)
Styl   01 00 0c 00 00 00 78 00 00 00    ff ff ff ff ff ff ff ff    02 00 00 00 01 00  6a 00 00 00 00 00 00 00 (106 bytes)
Styl   01 00 0c 00 00 00 7c 00 00 00    ff ff ff ff ff ff ff ff    02 00 00 00 01 00  92 00 00 00 00 00 00 00 (146 bytes)
Layr   01 00 0e 00 00 00 08 00 00 00    ff ff ff ff ff ff ff ff    02 00 00 00 01 00  e4 00 00 00 00 00 00 00 (228 bytes)
ScSt   01 00 0e 00 00 00 0c 00 00 00    ff ff ff ff ff ff ff ff    02 00 00 00 01 00  a8 0e 00 00 00 00 00 00 (3752 bytes)
Vide   03 00 0e 00 00 00 18 00 00 00    ff ff ff ff ff ff ff ff    02 00 00 00 01 00  82 00 00 00 00 00 00 00 (130 bytes)
AuCn   01 00 0e 00 00 00 20 00 00 00    ff ff ff ff ff ff ff ff    02 00 00 00 01 00  84 00 00 00 00 00 00 00 (132 bytes)
AuCO   02 00 0e 00 00 00 20 00 00 00    00 00 00 00 ff ff ff ff    02 00 00 00 01 00  0e 00 00 00 00 00 00 00 (14 bytes)
AuCn   01 00 0e 00 00 00 24 00 00 00    ff ff ff ff ff ff ff ff    02 00 00 00 01 00  50 05 00 00 00 00 00 00 (1360 bytes)
AuCO   02 00 0e 00 00 00 24 00 00 00    00 00 00 00 ff ff ff ff    02 00 00 00 01 00  a0 00 00 00 00 00 00 00 (160 bytes)
AuCU   02 00 0e 00 00 00 24 00 00 00    00 00 00 00 06 00 00 00    02 00 00 00 01 00  b0 00 00 00 00 00 00 00 (176 bytes)
AuCO   02 00 0e 00 00 00 24 00 00 00    01 00 00 00 ff ff ff ff    02 00 00 00 01 00  84 00 00 00 00 00 00 00 (132 bytes)
AuCO   02 00 0e 00 00 00 24 00 00 00    02 00 00 00 ff ff ff ff    02 00 00 00 01 00  84 00 00 00 00 00 00 00 (132 bytes)
AuCO   02 00 0e 00 00 00 24 00 00 00    03 00 00 00 ff ff ff ff    02 00 00 00 01 00  84 00 00 00 00 00 00 00 (132 bytes)
AuCO   02 00 0e 00 00 00 24 00 00 00    04 00 00 00 ff ff ff ff    02 00 00 00 01 00  84 00 00 00 00 00 00 00 (132 bytes)
AuCO   02 00 0e 00 00 00 24 00 00 00    05 00 00 00 ff ff ff ff    02 00 00 00 01 00  84 00 00 00 00 00 00 00 (132 bytes)
AuCO   02 00 0e 00 00 00 24 00 00 00    06 00 00 00 ff ff ff ff    02 00 00 00 01 00  84 00 00 00 00 00 00 00 (132 bytes)
AuCO   02 00 0e 00 00 00 24 00 00 00    07 00 00 00 ff ff ff ff    02 00 00 00 01 00  84 00 00 00 00 00 00 00 (132 bytes)
AuCO   02 00 0e 00 00 00 24 00 00 00    08 00 00 00 ff ff ff ff    02 00 00 00 01 00  84 00 00 00 00 00 00 00 (132 bytes)
AuCO   02 00 0e 00 00 00 24 00 00 00    09 00 00 00 ff ff ff ff    02 00 00 00 01 00  84 00 00 00 00 00 00 00 (132 bytes)
AuCO   02 00 0e 00 00 00 24 00 00 00    0a 00 00 00 ff ff ff ff    02 00 00 00 01 00  84 00 00 00 00 00 00 00 (132 bytes)
AuCO   02 00 0e 00 00 00 24 00 00 00    0b 00 00 00 ff ff ff ff    02 00 00 00 01 00  84 00 00 00 00 00 00 00 (132 bytes)
AuCO   02 00 0e 00 00 00 24 00 00 00    0c 00 00 00 ff ff ff ff    02 00 00 00 01 00  84 00 00 00 00 00 00 00 (132 bytes)
AuCO   02 00 0e 00 00 00 24 00 00 00    0d 00 00 00 ff ff ff ff    02 00 00 00 01 00  84 00 00 00 00 00 00 00 (132 bytes)
AuCO   02 00 0e 00 00 00 24 00 00 00    0e 00 00 00 ff ff ff ff    02 00 00 00 01 00  84 00 00 00 00 00 00 00 (132 bytes)
AuCO   02 00 0e 00 00 00 24 00 00 00    0f 00 00 00 ff ff ff ff    02 00 00 00 01 00  84 00 00 00 00 00 00 00 (132 bytes)
AuCO   02 00 0e 00 00 00 24 00 00 00    10 00 00 00 ff ff ff ff    02 00 00 00 01 00  84 00 00 00 00 00 00 00 (132 bytes)
AuCO   02 00 0e 00 00 00 24 00 00 00    11 00 00 00 ff ff ff ff    02 00 00 00 01 00  84 00 00 00 00 00 00 00 (132 bytes)
AuCO   02 00 0e 00 00 00 24 00 00 00    12 00 00 00 ff ff ff ff    02 00 00 00 01 00  84 00 00 00 00 00 00 00 (132 bytes)
AuCO   02 00 0e 00 00 00 24 00 00 00    13 00 00 00 ff ff ff ff    02 00 00 00 01 00  84 00 00 00 00 00 00 00 (132 bytes)
AuCO   02 00 0e 00 00 00 24 00 00 00    14 00 00 00 ff ff ff ff    02 00 00 00 01 00  ac 00 00 00 00 00 00 00 (172 bytes)
AuCO   02 00 0e 00 00 00 24 00 00 00    15 00 00 00 ff ff ff ff    02 00 00 00 01 00  90 00 00 00 00 00 00 00 (144 bytes)
AuCU   02 00 0e 00 00 00 24 00 00 00    15 00 00 00 02 00 00 00    02 00 00 00 01 00  ec 00 00 00 00 00 00 00 (236 bytes)
AuCO   02 00 0e 00 00 00 24 00 00 00    16 00 00 00 ff ff ff ff    02 00 00 00 01 00  84 00 00 00 00 00 00 00 (132 bytes)
AuCO   02 00 0e 00 00 00 24 00 00 00    17 00 00 00 ff ff ff ff    02 00 00 00 01 00  84 00 00 00 00 00 00 00 (132 bytes)
AuCO   02 00 0e 00 00 00 24 00 00 00    18 00 00 00 ff ff ff ff    02 00 00 00 01 00  84 00 00 00 00 00 00 00 (132 bytes)
AuCO   02 00 0e 00 00 00 24 00 00 00    19 00 00 00 ff ff ff ff    02 00 00 00 01 00  84 00 00 00 00 00 00 00 (132 bytes)
AuCO   02 00 0e 00 00 00 24 00 00 00    1a 00 00 00 ff ff ff ff    02 00 00 00 01 00  84 00 00 00 00 00 00 00 (132 bytes)
AuCO   02 00 0e 00 00 00 24 00 00 00    1b 00 00 00 ff ff ff ff    02 00 00 00 01 00  84 00 00 00 00 00 00 00 (132 bytes)
AuCO   02 00 0e 00 00 00 24 00 00 00    1c 00 00 00 ff ff ff ff    02 00 00 00 01 00  84 00 00 00 00 00 00 00 (132 bytes)
AuCO   02 00 0e 00 00 00 24 00 00 00    1d 00 00 00 ff ff ff ff    02 00 00 00 01 00  84 00 00 00 00 00 00 00 (132 bytes)
AuCO   02 00 0e 00 00 00 24 00 00 00    1e 00 00 00 ff ff ff ff    02 00 00 00 01 00  84 00 00 00 00 00 00 00 (132 bytes)
AuCO   02 00 0e 00 00 00 24 00 00 00    1f 00 00 00 ff ff ff ff    02 00 00 00 01 00  84 00 00 00 00 00 00 00 (132 bytes)
AuCO   02 00 0e 00 00 00 24 00 00 00    20 00 00 00 ff ff ff ff    02 00 00 00 01 00  84 00 00 00 00 00 00 00 (132 bytes)
AuCO   02 00 0e 00 00 00 24 00 00 00    21 00 00 00 ff ff ff ff    02 00 00 00 01 00  84 00 00 00 00 00 00 00 (132 bytes)
AuCO   02 00 0e 00 00 00 24 00 00 00    22 00 00 00 ff ff ff ff    02 00 00 00 01 00  84 00 00 00 00 00 00 00 (132 bytes)
AuCO   02 00 0e 00 00 00 24 00 00 00    23 00 00 00 ff ff ff ff    02 00 00 00 01 00  84 00 00 00 00 00 00 00 (132 bytes)
AuCO   02 00 0e 00 00 00 24 00 00 00    24 00 00 00 ff ff ff ff    02 00 00 00 01 00  84 00 00 00 00 00 00 00 (132 bytes)
AuCO   02 00 0e 00 00 00 24 00 00 00    25 00 00 00 ff ff ff ff    02 00 00 00 01 00  84 00 00 00 00 00 00 00 (132 bytes)
AuCO   02 00 0e 00 00 00 24 00 00 00    26 00 00 00 ff ff ff ff    02 00 00 00 01 00  84 00 00 00 00 00 00 00 (132 bytes)
AuCO   02 00 0e 00 00 00 24 00 00 00    27 00 00 00 ff ff ff ff    02 00 00 00 01 00  84 00 00 00 00 00 00 00 (132 bytes)
AuCO   02 00 0e 00 00 00 24 00 00 00    28 00 00 00 ff ff ff ff    02 00 00 00 01 00  84 00 00 00 00 00 00 00 (132 bytes)
AuCO   02 00 0e 00 00 00 24 00 00 00    29 00 00 00 ff ff ff ff    02 00 00 00 01 00  84 00 00 00 00 00 00 00 (132 bytes)
AuCO   02 00 0e 00 00 00 24 00 00 00    2a 00 00 00 ff ff ff ff    02 00 00 00 01 00  84 00 00 00 00 00 00 00 (132 bytes)
AuCO   02 00 0e 00 00 00 24 00 00 00    2b 00 00 00 ff ff ff ff    02 00 00 00 01 00  84 00 00 00 00 00 00 00 (132 bytes)
AuCO   02 00 0e 00 00 00 24 00 00 00    2c 00 00 00 ff ff ff ff    02 00 00 00 01 00  84 00 00 00 00 00 00 00 (132 bytes)
AuCO   02 00 0e 00 00 00 24 00 00 00    2d 00 00 00 ff ff ff ff    02 00 00 00 01 00  84 00 00 00 00 00 00 00 (132 bytes)
AuCO   02 00 0e 00 00 00 24 00 00 00    2e 00 00 00 ff ff ff ff    02 00 00 00 01 00  84 00 00 00 00 00 00 00 (132 bytes)
AuCO   02 00 0e 00 00 00 24 00 00 00    2f 00 00 00 ff ff ff ff    02 00 00 00 01 00  84 00 00 00 00 00 00 00 (132 bytes)
AuCO   02 00 0e 00 00 00 24 00 00 00    30 00 00 00 ff ff ff ff    02 00 00 00 01 00  84 00 00 00 00 00 00 00 (132 bytes)
AuCO   02 00 0e 00 00 00 24 00 00 00    31 00 00 00 ff ff ff ff    02 00 00 00 01 00  84 00 00 00 00 00 00 00 (132 bytes)
AuCO   02 00 0e 00 00 00 24 00 00 00    32 00 00 00 ff ff ff ff    02 00 00 00 01 00  84 00 00 00 00 00 00 00 (132 bytes)
AuCO   02 00 0e 00 00 00 24 00 00 00    33 00 00 00 ff ff ff ff    02 00 00 00 01 00  84 00 00 00 00 00 00 00 (132 bytes)
AuCO   02 00 0e 00 00 00 24 00 00 00    34 00 00 00 ff ff ff ff    02 00 00 00 01 00  84 00 00 00 00 00 00 00 (132 bytes)
AuCO   02 00 0e 00 00 00 24 00 00 00    35 00 00 00 ff ff ff ff    02 00 00 00 01 00  84 00 00 00 00 00 00 00 (132 bytes)
AuCO   02 00 0e 00 00 00 24 00 00 00    36 00 00 00 ff ff ff ff    02 00 00 00 01 00  84 00 00 00 00 00 00 00 (132 bytes)
AuCO   02 00 0e 00 00 00 24 00 00 00    37 00 00 00 ff ff ff ff    02 00 00 00 01 00  84 00 00 00 00 00 00 00 (132 bytes)
AuCO   02 00 0e 00 00 00 24 00 00 00    38 00 00 00 ff ff ff ff    02 00 00 00 01 00  84 00 00 00 00 00 00 00 (132 bytes)
AuCO   02 00 0e 00 00 00 24 00 00 00    39 00 00 00 ff ff ff ff    02 00 00 00 01 00  84 00 00 00 00 00 00 00 (132 bytes)
AuCO   02 00 0e 00 00 00 24 00 00 00    3a 00 00 00 ff ff ff ff    02 00 00 00 01 00  84 00 00 00 00 00 00 00 (132 bytes)
AuCO   02 00 0e 00 00 00 24 00 00 00    3b 00 00 00 ff ff ff ff    02 00 00 00 01 00  84 00 00 00 00 00 00 00 (132 bytes)
AuCO   02 00 0e 00 00 00 24 00 00 00    3c 00 00 00 ff ff ff ff    02 00 00 00 01 00  84 00 00 00 00 00 00 00 (132 bytes)
AuCO   02 00 0e 00 00 00 24 00 00 00    3d 00 00 00 ff ff ff ff    02 00 00 00 01 00  84 00 00 00 00 00 00 00 (132 bytes)
AuCO   02 00 0e 00 00 00 24 00 00 00    3e 00 00 00 ff ff ff ff    02 00 00 00 01 00  84 00 00 00 00 00 00 00 (132 bytes)
AuCO   02 00 0e 00 00 00 24 00 00 00    3f 00 00 00 ff ff ff ff    02 00 00 00 01 00  84 00 00 00 00 00 00 00 (132 bytes)
AuCO   02 00 0e 00 00 00 24 00 00 00    40 00 00 00 ff ff ff ff    02 00 00 00 01 00  84 00 00 00 00 00 00 00 (132 bytes)
AuCO   02 00 0e 00 00 00 24 00 00 00    41 00 00 00 ff ff ff ff    02 00 00 00 01 00  84 00 00 00 00 00 00 00 (132 bytes)
AuCO   02 00 0e 00 00 00 24 00 00 00    42 00 00 00 ff ff ff ff    02 00 00 00 01 00  84 00 00 00 00 00 00 00 (132 bytes)
AuCO   02 00 0e 00 00 00 24 00 00 00    43 00 00 00 ff ff ff ff    02 00 00 00 01 00  84 00 00 00 00 00 00 00 (132 bytes)
AuCO   02 00 0e 00 00 00 24 00 00 00    44 00 00 00 ff ff ff ff    02 00 00 00 01 00  84 00 00 00 00 00 00 00 (132 bytes)
AuCO   02 00 0e 00 00 00 24 00 00 00    45 00 00 00 ff ff ff ff    02 00 00 00 01 00  84 00 00 00 00 00 00 00 (132 bytes)
AuCO   02 00 0e 00 00 00 24 00 00 00    46 00 00 00 ff ff ff ff    02 00 00 00 01 00  84 00 00 00 00 00 00 00 (132 bytes)
AuCO   02 00 0e 00 00 00 24 00 00 00    47 00 00 00 ff ff ff ff    02 00 00 00 01 00  84 00 00 00 00 00 00 00 (132 bytes)
AuCO   02 00 0e 00 00 00 24 00 00 00    48 00 00 00 ff ff ff ff    02 00 00 00 01 00  84 00 00 00 00 00 00 00 (132 bytes)
AuCO   02 00 0e 00 00 00 24 00 00 00    49 00 00 00 ff ff ff ff    02 00 00 00 01 00  84 00 00 00 00 00 00 00 (132 bytes)
AuCO   02 00 0e 00 00 00 24 00 00 00    4a 00 00 00 ff ff ff ff    02 00 00 00 01 00  84 00 00 00 00 00 00 00 (132 bytes)
AuCO   02 00 0e 00 00 00 24 00 00 00    4b 00 00 00 ff ff ff ff    02 00 00 00 01 00  84 00 00 00 00 00 00 00 (132 bytes)
AuCO   02 00 0e 00 00 00 24 00 00 00    4c 00 00 00 ff ff ff ff    02 00 00 00 01 00  84 00 00 00 00 00 00 00 (132 bytes)
AuCO   02 00 0e 00 00 00 24 00 00 00    4d 00 00 00 ff ff ff ff    02 00 00 00 01 00  84 00 00 00 00 00 00 00 (132 bytes)
AuCO   02 00 0e 00 00 00 24 00 00 00    4e 00 00 00 ff ff ff ff    02 00 00 00 01 00  84 00 00 00 00 00 00 00 (132 bytes)
AuCO   02 00 0e 00 00 00 24 00 00 00    4f 00 00 00 ff ff ff ff    02 00 00 00 01 00  84 00 00 00 00 00 00 00 (132 bytes)
AuCO   02 00 0e 00 00 00 24 00 00 00    50 00 00 00 ff ff ff ff    02 00 00 00 01 00  84 00 00 00 00 00 00 00 (132 bytes)
AuCO   02 00 0e 00 00 00 24 00 00 00    51 00 00 00 ff ff ff ff    02 00 00 00 01 00  84 00 00 00 00 00 00 00 (132 bytes)
AuCO   02 00 0e 00 00 00 24 00 00 00    52 00 00 00 ff ff ff ff    02 00 00 00 01 00  84 00 00 00 00 00 00 00 (132 bytes)
AuCO   02 00 0e 00 00 00 24 00 00 00    53 00 00 00 ff ff ff ff    02 00 00 00 01 00  84 00 00 00 00 00 00 00 (132 bytes)
AuCO   02 00 0e 00 00 00 24 00 00 00    54 00 00 00 ff ff ff ff    02 00 00 00 01 00  84 00 00 00 00 00 00 00 (132 bytes)
AuCO   02 00 0e 00 00 00 24 00 00 00    55 00 00 00 ff ff ff ff    02 00 00 00 01 00  84 00 00 00 00 00 00 00 (132 bytes)
AuCO   02 00 0e 00 00 00 24 00 00 00    56 00 00 00 ff ff ff ff    02 00 00 00 01 00  84 00 00 00 00 00 00 00 (132 bytes)
AuCO   02 00 0e 00 00 00 24 00 00 00    57 00 00 00 ff ff ff ff    02 00 00 00 01 00  84 00 00 00 00 00 00 00 (132 bytes)
AuCO   02 00 0e 00 00 00 24 00 00 00    58 00 00 00 ff ff ff ff    02 00 00 00 01 00  84 00 00 00 00 00 00 00 (132 bytes)
AuCO   02 00 0e 00 00 00 24 00 00 00    59 00 00 00 ff ff ff ff    02 00 00 00 01 00  84 00 00 00 00 00 00 00 (132 bytes)
AuCO   02 00 0e 00 00 00 24 00 00 00    5a 00 00 00 ff ff ff ff    02 00 00 00 01 00  84 00 00 00 00 00 00 00 (132 bytes)
AuCO   02 00 0e 00 00 00 24 00 00 00    5b 00 00 00 ff ff ff ff    02 00 00 00 01 00  84 00 00 00 00 00 00 00 (132 bytes)
AuCO   02 00 0e 00 00 00 24 00 00 00    5c 00 00 00 ff ff ff ff    02 00 00 00 01 00  84 00 00 00 00 00 00 00 (132 bytes)
AuCO   02 00 0e 00 00 00 24 00 00 00    5d 00 00 00 ff ff ff ff    02 00 00 00 01 00  84 00 00 00 00 00 00 00 (132 bytes)
AuCO   02 00 0e 00 00 00 24 00 00 00    5e 00 00 00 ff ff ff ff    02 00 00 00 01 00  84 00 00 00 00 00 00 00 (132 bytes)
AuCO   02 00 0e 00 00 00 24 00 00 00    5f 00 00 00 ff ff ff ff    02 00 00 00 01 00  84 00 00 00 00 00 00 00 (132 bytes)
AuCO   02 00 0e 00 00 00 24 00 00 00    60 00 00 00 ff ff ff ff    02 00 00 00 01 00  84 00 00 00 00 00 00 00 (132 bytes)
AuCO   02 00 0e 00 00 00 24 00 00 00    61 00 00 00 ff ff ff ff    02 00 00 00 01 00  84 00 00 00 00 00 00 00 (132 bytes)
AuCO   02 00 0e 00 00 00 24 00 00 00    62 00 00 00 ff ff ff ff    02 00 00 00 01 00  84 00 00 00 00 00 00 00 (132 bytes)
AuCO   02 00 0e 00 00 00 24 00 00 00    63 00 00 00 ff ff ff ff    02 00 00 00 01 00  84 00 00 00 00 00 00 00 (132 bytes)
AuCO   02 00 0e 00 00 00 24 00 00 00    64 00 00 00 ff ff ff ff    02 00 00 00 01 00  84 00 00 00 00 00 00 00 (132 bytes)
AuCO   02 00 0e 00 00 00 24 00 00 00    65 00 00 00 ff ff ff ff    02 00 00 00 01 00  84 00 00 00 00 00 00 00 (132 bytes)
AuCO   02 00 0e 00 00 00 24 00 00 00    66 00 00 00 ff ff ff ff    02 00 00 00 01 00  84 00 00 00 00 00 00 00 (132 bytes)
AuCO   02 00 0e 00 00 00 24 00 00 00    67 00 00 00 ff ff ff ff    02 00 00 00 01 00  84 00 00 00 00 00 00 00 (132 bytes)
AuCO   02 00 0e 00 00 00 24 00 00 00    68 00 00 00 ff ff ff ff    02 00 00 00 01 00  84 00 00 00 00 00 00 00 (132 bytes)
AuCO   02 00 0e 00 00 00 24 00 00 00    69 00 00 00 ff ff ff ff    02 00 00 00 01 00  84 00 00 00 00 00 00 00 (132 bytes)
AuCO   02 00 0e 00 00 00 24 00 00 00    6a 00 00 00 ff ff ff ff    02 00 00 00 01 00  84 00 00 00 00 00 00 00 (132 bytes)
AuCO   02 00 0e 00 00 00 24 00 00 00    6b 00 00 00 ff ff ff ff    02 00 00 00 01 00  84 00 00 00 00 00 00 00 (132 bytes)
AuCO   02 00 0e 00 00 00 24 00 00 00    6c 00 00 00 ff ff ff ff    02 00 00 00 01 00  84 00 00 00 00 00 00 00 (132 bytes)
AuCO   02 00 0e 00 00 00 24 00 00 00    6d 00 00 00 ff ff ff ff    02 00 00 00 01 00  84 00 00 00 00 00 00 00 (132 bytes)
AuCO   02 00 0e 00 00 00 24 00 00 00    6e 00 00 00 ff ff ff ff    02 00 00 00 01 00  84 00 00 00 00 00 00 00 (132 bytes)
AuCO   02 00 0e 00 00 00 24 00 00 00    6f 00 00 00 ff ff ff ff    02 00 00 00 01 00  84 00 00 00 00 00 00 00 (132 bytes)
AuCO   02 00 0e 00 00 00 24 00 00 00    70 00 00 00 ff ff ff ff    02 00 00 00 01 00  84 00 00 00 00 00 00 00 (132 bytes)
AuCO   02 00 0e 00 00 00 24 00 00 00    71 00 00 00 ff ff ff ff    02 00 00 00 01 00  84 00 00 00 00 00 00 00 (132 bytes)
AuCO   02 00 0e 00 00 00 24 00 00 00    72 00 00 00 ff ff ff ff    02 00 00 00 01 00  84 00 00 00 00 00 00 00 (132 bytes)
AuCO   02 00 0e 00 00 00 24 00 00 00    73 00 00 00 ff ff ff ff    02 00 00 00 01 00  84 00 00 00 00 00 00 00 (132 bytes)
AuCO   02 00 0e 00 00 00 24 00 00 00    74 00 00 00 ff ff ff ff    02 00 00 00 01 00  84 00 00 00 00 00 00 00 (132 bytes)
AuCO   02 00 0e 00 00 00 24 00 00 00    75 00 00 00 ff ff ff ff    02 00 00 00 01 00  84 00 00 00 00 00 00 00 (132 bytes)
AuCO   02 00 0e 00 00 00 24 00 00 00    76 00 00 00 ff ff ff ff    02 00 00 00 01 00  84 00 00 00 00 00 00 00 (132 bytes)
AuCO   02 00 0e 00 00 00 24 00 00 00    77 00 00 00 ff ff ff ff    02 00 00 00 01 00  84 00 00 00 00 00 00 00 (132 bytes)
AuCO   02 00 0e 00 00 00 24 00 00 00    78 00 00 00 ff ff ff ff    02 00 00 00 01 00  84 00 00 00 00 00 00 00 (132 bytes)
AuCO   02 00 0e 00 00 00 24 00 00 00    79 00 00 00 ff ff ff ff    02 00 00 00 01 00  84 00 00 00 00 00 00 00 (132 bytes)
AuCO   02 00 0e 00 00 00 24 00 00 00    7a 00 00 00 ff ff ff ff    02 00 00 00 01 00  84 00 00 00 00 00 00 00 (132 bytes)
AuCO   02 00 0e 00 00 00 24 00 00 00    7b 00 00 00 ff ff ff ff    02 00 00 00 01 00  84 00 00 00 00 00 00 00 (132 bytes)
AuCO   02 00 0e 00 00 00 24 00 00 00    7c 00 00 00 ff ff ff ff    02 00 00 00 01 00  84 00 00 00 00 00 00 00 (132 bytes)
AuCO   02 00 0e 00 00 00 24 00 00 00    7d 00 00 00 ff ff ff ff    02 00 00 00 01 00  84 00 00 00 00 00 00 00 (132 bytes)
AuCO   02 00 0e 00 00 00 24 00 00 00    7e 00 00 00 ff ff ff ff    02 00 00 00 01 00  84 00 00 00 00 00 00 00 (132 bytes)
AuCO   02 00 0e 00 00 00 24 00 00 00    7f 00 00 00 ff ff ff ff    02 00 00 00 01 00  84 00 00 00 00 00 00 00 (132 bytes)
AuCO   02 00 0e 00 00 00 24 00 00 00    80 00 00 00 ff ff ff ff    02 00 00 00 01 00  84 00 00 00 00 00 00 00 (132 bytes)
AuCO   02 00 0e 00 00 00 24 00 00 00    81 00 00 00 ff ff ff ff    02 00 00 00 01 00  84 00 00 00 00 00 00 00 (132 bytes)
AuCO   02 00 0e 00 00 00 24 00 00 00    82 00 00 00 ff ff ff ff    02 00 00 00 01 00  84 00 00 00 00 00 00 00 (132 bytes)
AuCO   02 00 0e 00 00 00 24 00 00 00    83 00 00 00 ff ff ff ff    02 00 00 00 01 00  84 00 00 00 00 00 00 00 (132 bytes)
AuCO   02 00 0e 00 00 00 24 00 00 00    84 00 00 00 ff ff ff ff    02 00 00 00 01 00  84 00 00 00 00 00 00 00 (132 bytes)
AuCO   02 00 0e 00 00 00 24 00 00 00    85 00 00 00 ff ff ff ff    02 00 00 00 01 00  84 00 00 00 00 00 00 00 (132 bytes)
AuCO   02 00 0e 00 00 00 24 00 00 00    86 00 00 00 ff ff ff ff    02 00 00 00 01 00  84 00 00 00 00 00 00 00 (132 bytes)
AuCO   02 00 0e 00 00 00 24 00 00 00    87 00 00 00 ff ff ff ff    02 00 00 00 01 00  84 00 00 00 00 00 00 00 (132 bytes)
AuCO   02 00 0e 00 00 00 24 00 00 00    88 00 00 00 ff ff ff ff    02 00 00 00 01 00  84 00 00 00 00 00 00 00 (132 bytes)
AuCO   02 00 0e 00 00 00 24 00 00 00    89 00 00 00 ff ff ff ff    02 00 00 00 01 00  84 00 00 00 00 00 00 00 (132 bytes)
AuCO   02 00 0e 00 00 00 24 00 00 00    8a 00 00 00 ff ff ff ff    02 00 00 00 01 00  84 00 00 00 00 00 00 00 (132 bytes)
AuCO   02 00 0e 00 00 00 24 00 00 00    8b 00 00 00 ff ff ff ff    02 00 00 00 01 00  84 00 00 00 00 00 00 00 (132 bytes)
AuCO   02 00 0e 00 00 00 24 00 00 00    8c 00 00 00 ff ff ff ff    02 00 00 00 01 00  84 00 00 00 00 00 00 00 (132 bytes)
AuCO   02 00 0e 00 00 00 24 00 00 00    8d 00 00 00 ff ff ff ff    02 00 00 00 01 00  84 00 00 00 00 00 00 00 (132 bytes)
AuCO   02 00 0e 00 00 00 24 00 00 00    8e 00 00 00 ff ff ff ff    02 00 00 00 01 00  84 00 00 00 00 00 00 00 (132 bytes)
AuCO   02 00 0e 00 00 00 24 00 00 00    8f 00 00 00 ff ff ff ff    02 00 00 00 01 00  84 00 00 00 00 00 00 00 (132 bytes)
AuCO   02 00 0e 00 00 00 24 00 00 00    90 00 00 00 ff ff ff ff    02 00 00 00 01 00  84 00 00 00 00 00 00 00 (132 bytes)
AuCO   02 00 0e 00 00 00 24 00 00 00    91 00 00 00 ff ff ff ff    02 00 00 00 01 00  84 00 00 00 00 00 00 00 (132 bytes)
AuCO   02 00 0e 00 00 00 24 00 00 00    92 00 00 00 ff ff ff ff    02 00 00 00 01 00  84 00 00 00 00 00 00 00 (132 bytes)
AuCO   02 00 0e 00 00 00 24 00 00 00    93 00 00 00 ff ff ff ff    02 00 00 00 01 00  84 00 00 00 00 00 00 00 (132 bytes)
AuCO   02 00 0e 00 00 00 24 00 00 00    94 00 00 00 ff ff ff ff    02 00 00 00 01 00  84 00 00 00 00 00 00 00 (132 bytes)
AuCO   02 00 0e 00 00 00 24 00 00 00    95 00 00 00 ff ff ff ff    02 00 00 00 01 00  84 00 00 00 00 00 00 00 (132 bytes)
AuCO   02 00 0e 00 00 00 24 00 00 00    96 00 00 00 ff ff ff ff    02 00 00 00 01 00  84 00 00 00 00 00 00 00 (132 bytes)
AuCO   02 00 0e 00 00 00 24 00 00 00    97 00 00 00 ff ff ff ff    02 00 00 00 01 00  84 00 00 00 00 00 00 00 (132 bytes)
AuCO   02 00 0e 00 00 00 24 00 00 00    98 00 00 00 ff ff ff ff    02 00 00 00 01 00  84 00 00 00 00 00 00 00 (132 bytes)
AuCO   02 00 0e 00 00 00 24 00 00 00    99 00 00 00 ff ff ff ff    02 00 00 00 01 00  84 00 00 00 00 00 00 00 (132 bytes)
AuCO   02 00 0e 00 00 00 24 00 00 00    9a 00 00 00 ff ff ff ff    02 00 00 00 01 00  84 00 00 00 00 00 00 00 (132 bytes)
AuCO   02 00 0e 00 00 00 24 00 00 00    9b 00 00 00 ff ff ff ff    02 00 00 00 01 00  84 00 00 00 00 00 00 00 (132 bytes)
AuCO   02 00 0e 00 00 00 24 00 00 00    9c 00 00 00 ff ff ff ff    02 00 00 00 01 00  84 00 00 00 00 00 00 00 (132 bytes)
AuCO   02 00 0e 00 00 00 24 00 00 00    9d 00 00 00 ff ff ff ff    02 00 00 00 01 00  84 00 00 00 00 00 00 00 (132 bytes)
AuCO   02 00 0e 00 00 00 24 00 00 00    9e 00 00 00 ff ff ff ff    02 00 00 00 01 00  84 00 00 00 00 00 00 00 (132 bytes)
AuCO   02 00 0e 00 00 00 24 00 00 00    9f 00 00 00 ff ff ff ff    02 00 00 00 01 00  84 00 00 00 00 00 00 00 (132 bytes)
AuCO   02 00 0e 00 00 00 24 00 00 00    a0 00 00 00 ff ff ff ff    02 00 00 00 01 00  84 00 00 00 00 00 00 00 (132 bytes)
AuCO   02 00 0e 00 00 00 24 00 00 00    a1 00 00 00 ff ff ff ff    02 00 00 00 01 00  84 00 00 00 00 00 00 00 (132 bytes)
AuCO   02 00 0e 00 00 00 24 00 00 00    a2 00 00 00 ff ff ff ff    02 00 00 00 01 00  84 00 00 00 00 00 00 00 (132 bytes)
AuCO   02 00 0e 00 00 00 24 00 00 00    a3 00 00 00 ff ff ff ff    02 00 00 00 01 00  84 00 00 00 00 00 00 00 (132 bytes)
AuCO   02 00 0e 00 00 00 24 00 00 00    a4 00 00 00 ff ff ff ff    02 00 00 00 01 00  84 00 00 00 00 00 00 00 (132 bytes)
AuCO   02 00 0e 00 00 00 24 00 00 00    a5 00 00 00 ff ff ff ff    02 00 00 00 01 00  84 00 00 00 00 00 00 00 (132 bytes)
AuCO   02 00 0e 00 00 00 24 00 00 00    a6 00 00 00 ff ff ff ff    02 00 00 00 01 00  84 00 00 00 00 00 00 00 (132 bytes)
AuCO   02 00 0e 00 00 00 24 00 00 00    a7 00 00 00 ff ff ff ff    02 00 00 00 01 00  84 00 00 00 00 00 00 00 (132 bytes)
AuCO   02 00 0e 00 00 00 24 00 00 00    a8 00 00 00 ff ff ff ff    02 00 00 00 01 00  84 00 00 00 00 00 00 00 (132 bytes)
AuCO   02 00 0e 00 00 00 24 00 00 00    a9 00 00 00 ff ff ff ff    02 00 00 00 01 00  84 00 00 00 00 00 00 00 (132 bytes)
AuCO   02 00 0e 00 00 00 24 00 00 00    aa 00 00 00 ff ff ff ff    02 00 00 00 01 00  84 00 00 00 00 00 00 00 (132 bytes)
AuCO   02 00 0e 00 00 00 24 00 00 00    ab 00 00 00 ff ff ff ff    02 00 00 00 01 00  84 00 00 00 00 00 00 00 (132 bytes)
AuCO   02 00 0e 00 00 00 24 00 00 00    ac 00 00 00 ff ff ff ff    02 00 00 00 01 00  84 00 00 00 00 00 00 00 (132 bytes)
AuCO   02 00 0e 00 00 00 24 00 00 00    ad 00 00 00 ff ff ff ff    02 00 00 00 01 00  84 00 00 00 00 00 00 00 (132 bytes)
AuCO   02 00 0e 00 00 00 24 00 00 00    ae 00 00 00 ff ff ff ff    02 00 00 00 01 00  84 00 00 00 00 00 00 00 (132 bytes)
AuCO   02 00 0e 00 00 00 24 00 00 00    af 00 00 00 ff ff ff ff    02 00 00 00 01 00  84 00 00 00 00 00 00 00 (132 bytes)
AuCO   02 00 0e 00 00 00 24 00 00 00    b0 00 00 00 ff ff ff ff    02 00 00 00 01 00  84 00 00 00 00 00 00 00 (132 bytes)
AuCO   02 00 0e 00 00 00 24 00 00 00    b1 00 00 00 ff ff ff ff    02 00 00 00 01 00  84 00 00 00 00 00 00 00 (132 bytes)
AuCO   02 00 0e 00 00 00 24 00 00 00    b2 00 00 00 ff ff ff ff    02 00 00 00 01 00  84 00 00 00 00 00 00 00 (132 bytes)
AuCO   02 00 0e 00 00 00 24 00 00 00    b3 00 00 00 ff ff ff ff    02 00 00 00 01 00  84 00 00 00 00 00 00 00 (132 bytes)
AuCO   02 00 0e 00 00 00 24 00 00 00    b4 00 00 00 ff ff ff ff    02 00 00 00 01 00  84 00 00 00 00 00 00 00 (132 bytes)
AuCO   02 00 0e 00 00 00 24 00 00 00    b5 00 00 00 ff ff ff ff    02 00 00 00 01 00  84 00 00 00 00 00 00 00 (132 bytes)
AuCO   02 00 0e 00 00 00 24 00 00 00    b6 00 00 00 ff ff ff ff    02 00 00 00 01 00  84 00 00 00 00 00 00 00 (132 bytes)
AuCO   02 00 0e 00 00 00 24 00 00 00    b7 00 00 00 ff ff ff ff    02 00 00 00 01 00  84 00 00 00 00 00 00 00 (132 bytes)
AuCO   02 00 0e 00 00 00 24 00 00 00    b8 00 00 00 ff ff ff ff    02 00 00 00 01 00  84 00 00 00 00 00 00 00 (132 bytes)
AuCO   02 00 0e 00 00 00 24 00 00 00    b9 00 00 00 ff ff ff ff    02 00 00 00 01 00  84 00 00 00 00 00 00 00 (132 bytes)
AuCO   02 00 0e 00 00 00 24 00 00 00    ba 00 00 00 ff ff ff ff    02 00 00 00 01 00  84 00 00 00 00 00 00 00 (132 bytes)
AuCO   02 00 0e 00 00 00 24 00 00 00    bb 00 00 00 ff ff ff ff    02 00 00 00 01 00  84 00 00 00 00 00 00 00 (132 bytes)
AuCO   02 00 0e 00 00 00 24 00 00 00    bc 00 00 00 ff ff ff ff    02 00 00 00 01 00  84 00 00 00 00 00 00 00 (132 bytes)
AuCO   02 00 0e 00 00 00 24 00 00 00    bd 00 00 00 ff ff ff ff    02 00 00 00 01 00  84 00 00 00 00 00 00 00 (132 bytes)
AuCO   02 00 0e 00 00 00 24 00 00 00    be 00 00 00 ff ff ff ff    02 00 00 00 01 00  84 00 00 00 00 00 00 00 (132 bytes)
AuCO   02 00 0e 00 00 00 24 00 00 00    bf 00 00 00 ff ff ff ff    02 00 00 00 01 00  84 00 00 00 00 00 00 00 (132 bytes)
AuCO   02 00 0e 00 00 00 24 00 00 00    c0 00 00 00 ff ff ff ff    02 00 00 00 01 00  84 00 00 00 00 00 00 00 (132 bytes)
AuCO   02 00 0e 00 00 00 24 00 00 00    c1 00 00 00 ff ff ff ff    02 00 00 00 01 00  84 00 00 00 00 00 00 00 (132 bytes)
AuCO   02 00 0e 00 00 00 24 00 00 00    c2 00 00 00 ff ff ff ff    02 00 00 00 01 00  84 00 00 00 00 00 00 00 (132 bytes)
AuCO   02 00 0e 00 00 00 24 00 00 00    c3 00 00 00 ff ff ff ff    02 00 00 00 01 00  84 00 00 00 00 00 00 00 (132 bytes)
AuCO   02 00 0e 00 00 00 24 00 00 00    c4 00 00 00 ff ff ff ff    02 00 00 00 01 00  84 00 00 00 00 00 00 00 (132 bytes)
AuCO   02 00 0e 00 00 00 24 00 00 00    c5 00 00 00 ff ff ff ff    02 00 00 00 01 00  84 00 00 00 00 00 00 00 (132 bytes)
AuCO   02 00 0e 00 00 00 24 00 00 00    c6 00 00 00 ff ff ff ff    02 00 00 00 01 00  84 00 00 00 00 00 00 00 (132 bytes)
AuCO   02 00 0e 00 00 00 24 00 00 00    c7 00 00 00 ff ff ff ff    02 00 00 00 01 00  84 00 00 00 00 00 00 00 (132 bytes)
AuCO   02 00 0e 00 00 00 24 00 00 00    c8 00 00 00 ff ff ff ff    02 00 00 00 01 00  84 00 00 00 00 00 00 00 (132 bytes)
AuCO   02 00 0e 00 00 00 24 00 00 00    c9 00 00 00 ff ff ff ff    02 00 00 00 01 00  84 00 00 00 00 00 00 00 (132 bytes)
AuCO   02 00 0e 00 00 00 24 00 00 00    ca 00 00 00 ff ff ff ff    02 00 00 00 01 00  84 00 00 00 00 00 00 00 (132 bytes)
AuCO   02 00 0e 00 00 00 24 00 00 00    cb 00 00 00 ff ff ff ff    02 00 00 00 01 00  84 00 00 00 00 00 00 00 (132 bytes)
AuCO   02 00 0e 00 00 00 24 00 00 00    cc 00 00 00 ff ff ff ff    02 00 00 00 01 00  84 00 00 00 00 00 00 00 (132 bytes)
AuCO   02 00 0e 00 00 00 24 00 00 00    cd 00 00 00 ff ff ff ff    02 00 00 00 01 00  84 00 00 00 00 00 00 00 (132 bytes)
AuCO   02 00 0e 00 00 00 24 00 00 00    ce 00 00 00 ff ff ff ff    02 00 00 00 01 00  84 00 00 00 00 00 00 00 (132 bytes)
AuCO   02 00 0e 00 00 00 24 00 00 00    cf 00 00 00 ff ff ff ff    02 00 00 00 01 00  84 00 00 00 00 00 00 00 (132 bytes)
AuCO   02 00 0e 00 00 00 24 00 00 00    d0 00 00 00 ff ff ff ff    02 00 00 00 01 00  84 00 00 00 00 00 00 00 (132 bytes)
AuCO   02 00 0e 00 00 00 24 00 00 00    d1 00 00 00 ff ff ff ff    02 00 00 00 01 00  84 00 00 00 00 00 00 00 (132 bytes)
AuCO   02 00 0e 00 00 00 24 00 00 00    d2 00 00 00 ff ff ff ff    02 00 00 00 01 00  84 00 00 00 00 00 00 00 (132 bytes)
AuCO   02 00 0e 00 00 00 24 00 00 00    d3 00 00 00 ff ff ff ff    02 00 00 00 01 00  84 00 00 00 00 00 00 00 (132 bytes)
AuCO   02 00 0e 00 00 00 24 00 00 00    d4 00 00 00 ff ff ff ff    02 00 00 00 01 00  84 00 00 00 00 00 00 00 (132 bytes)
AuCO   02 00 0e 00 00 00 24 00 00 00    d5 00 00 00 ff ff ff ff    02 00 00 00 01 00  84 00 00 00 00 00 00 00 (132 bytes)
AuCO   02 00 0e 00 00 00 24 00 00 00    d6 00 00 00 ff ff ff ff    02 00 00 00 01 00  84 00 00 00 00 00 00 00 (132 bytes)
AuCO   02 00 0e 00 00 00 24 00 00 00    d7 00 00 00 ff ff ff ff    02 00 00 00 01 00  84 00 00 00 00 00 00 00 (132 bytes)
AuCO   02 00 0e 00 00 00 24 00 00 00    d8 00 00 00 ff ff ff ff    02 00 00 00 01 00  84 00 00 00 00 00 00 00 (132 bytes)
AuCO   02 00 0e 00 00 00 24 00 00 00    d9 00 00 00 ff ff ff ff    02 00 00 00 01 00  84 00 00 00 00 00 00 00 (132 bytes)
AuCO   02 00 0e 00 00 00 24 00 00 00    da 00 00 00 ff ff ff ff    02 00 00 00 01 00  84 00 00 00 00 00 00 00 (132 bytes)
AuCO   02 00 0e 00 00 00 24 00 00 00    db 00 00 00 ff ff ff ff    02 00 00 00 01 00  84 00 00 00 00 00 00 00 (132 bytes)
AuCO   02 00 0e 00 00 00 24 00 00 00    dc 00 00 00 ff ff ff ff    02 00 00 00 01 00  84 00 00 00 00 00 00 00 (132 bytes)
AuCO   02 00 0e 00 00 00 24 00 00 00    dd 00 00 00 ff ff ff ff    02 00 00 00 01 00  84 00 00 00 00 00 00 00 (132 bytes)
AuCO   02 00 0e 00 00 00 24 00 00 00    de 00 00 00 ff ff ff ff    02 00 00 00 01 00  84 00 00 00 00 00 00 00 (132 bytes)
AuCO   02 00 0e 00 00 00 24 00 00 00    df 00 00 00 ff ff ff ff    02 00 00 00 01 00  84 00 00 00 00 00 00 00 (132 bytes)
AuCO   02 00 0e 00 00 00 24 00 00 00    e0 00 00 00 ff ff ff ff    02 00 00 00 01 00  84 00 00 00 00 00 00 00 (132 bytes)
AuCO   02 00 0e 00 00 00 24 00 00 00    e1 00 00 00 ff ff ff ff    02 00 00 00 01 00  84 00 00 00 00 00 00 00 (132 bytes)
AuCO   02 00 0e 00 00 00 24 00 00 00    e2 00 00 00 ff ff ff ff    02 00 00 00 01 00  84 00 00 00 00 00 00 00 (132 bytes)
AuCO   02 00 0e 00 00 00 24 00 00 00    e3 00 00 00 ff ff ff ff    02 00 00 00 01 00  84 00 00 00 00 00 00 00 (132 bytes)
AuCO   02 00 0e 00 00 00 24 00 00 00    e4 00 00 00 ff ff ff ff    02 00 00 00 01 00  84 00 00 00 00 00 00 00 (132 bytes)
AuCO   02 00 0e 00 00 00 24 00 00 00    e5 00 00 00 ff ff ff ff    02 00 00 00 01 00  84 00 00 00 00 00 00 00 (132 bytes)
AuCO   02 00 0e 00 00 00 24 00 00 00    e6 00 00 00 ff ff ff ff    02 00 00 00 01 00  84 00 00 00 00 00 00 00 (132 bytes)
AuCO   02 00 0e 00 00 00 24 00 00 00    e7 00 00 00 ff ff ff ff    02 00 00 00 01 00  84 00 00 00 00 00 00 00 (132 bytes)
AuCO   02 00 0e 00 00 00 24 00 00 00    e8 00 00 00 ff ff ff ff    02 00 00 00 01 00  84 00 00 00 00 00 00 00 (132 bytes)
AuCO   02 00 0e 00 00 00 24 00 00 00    e9 00 00 00 ff ff ff ff    02 00 00 00 01 00  84 00 00 00 00 00 00 00 (132 bytes)
AuCO   02 00 0e 00 00 00 24 00 00 00    ea 00 00 00 ff ff ff ff    02 00 00 00 01 00  84 00 00 00 00 00 00 00 (132 bytes)
AuCO   02 00 0e 00 00 00 24 00 00 00    eb 00 00 00 ff ff ff ff    02 00 00 00 01 00  84 00 00 00 00 00 00 00 (132 bytes)
AuCO   02 00 0e 00 00 00 24 00 00 00    ec 00 00 00 ff ff ff ff    02 00 00 00 01 00  84 00 00 00 00 00 00 00 (132 bytes)
AuCO   02 00 0e 00 00 00 24 00 00 00    ed 00 00 00 ff ff ff ff    02 00 00 00 01 00  84 00 00 00 00 00 00 00 (132 bytes)
AuCO   02 00 0e 00 00 00 24 00 00 00    ee 00 00 00 ff ff ff ff    02 00 00 00 01 00  84 00 00 00 00 00 00 00 (132 bytes)
AuCO   02 00 0e 00 00 00 24 00 00 00    ef 00 00 00 ff ff ff ff    02 00 00 00 01 00  84 00 00 00 00 00 00 00 (132 bytes)
AuCO   02 00 0e 00 00 00 24 00 00 00    f0 00 00 00 ff ff ff ff    02 00 00 00 01 00  84 00 00 00 00 00 00 00 (132 bytes)
AuCO   02 00 0e 00 00 00 24 00 00 00    f1 00 00 00 ff ff ff ff    02 00 00 00 01 00  84 00 00 00 00 00 00 00 (132 bytes)
AuCO   02 00 0e 00 00 00 24 00 00 00    f2 00 00 00 ff ff ff ff    02 00 00 00 01 00  84 00 00 00 00 00 00 00 (132 bytes)
AuCO   02 00 0e 00 00 00 24 00 00 00    f3 00 00 00 ff ff ff ff    02 00 00 00 01 00  84 00 00 00 00 00 00 00 (132 bytes)
AuCO   02 00 0e 00 00 00 24 00 00 00    f4 00 00 00 ff ff ff ff    02 00 00 00 01 00  84 00 00 00 00 00 00 00 (132 bytes)
AuCO   02 00 0e 00 00 00 24 00 00 00    f5 00 00 00 ff ff ff ff    02 00 00 00 01 00  84 00 00 00 00 00 00 00 (132 bytes)
AuCO   02 00 0e 00 00 00 24 00 00 00    f6 00 00 00 ff ff ff ff    02 00 00 00 01 00  84 00 00 00 00 00 00 00 (132 bytes)
AuCO   02 00 0e 00 00 00 24 00 00 00    f7 00 00 00 ff ff ff ff    02 00 00 00 01 00  84 00 00 00 00 00 00 00 (132 bytes)
AuCO   02 00 0e 00 00 00 24 00 00 00    f8 00 00 00 ff ff ff ff    02 00 00 00 01 00  84 00 00 00 00 00 00 00 (132 bytes)
AuCO   02 00 0e 00 00 00 24 00 00 00    f9 00 00 00 ff ff ff ff    02 00 00 00 01 00  84 00 00 00 00 00 00 00 (132 bytes)
AuCO   02 00 0e 00 00 00 24 00 00 00    fa 00 00 00 ff ff ff ff    02 00 00 00 01 00  84 00 00 00 00 00 00 00 (132 bytes)
AuCO   02 00 0e 00 00 00 24 00 00 00    fb 00 00 00 ff ff ff ff    02 00 00 00 01 00  84 00 00 00 00 00 00 00 (132 bytes)
AuCO   02 00 0e 00 00 00 24 00 00 00    fc 00 00 00 ff ff ff ff    02 00 00 00 01 00  84 00 00 00 00 00 00 00 (132 bytes)
AuCO   02 00 0e 00 00 00 24 00 00 00    fd 00 00 00 ff ff ff ff    02 00 00 00 01 00  84 00 00 00 00 00 00 00 (132 bytes)
AuCO   02 00 0e 00 00 00 24 00 00 00    fe 00 00 00 ff ff ff ff    02 00 00 00 01 00  84 00 00 00 00 00 00 00 (132 bytes)
AuCO   02 00 0e 00 00 00 24 00 00 00    ff 00 00 00 ff ff ff ff    02 00 00 00 01 00  84 00 00 00 00 00 00 00 (132 bytes)
AuCO   02 00 0e 00 00 00 24 00 00 00    00 01 00 00 ff ff ff ff    02 00 00 00 01 00  84 00 00 00 00 00 00 00 (132 bytes)
AuCO   02 00 0e 00 00 00 24 00 00 00    01 01 00 00 ff ff ff ff    02 00 00 00 01 00  84 00 00 00 00 00 00 00 (132 bytes)
AuCO   02 00 0e 00 00 00 24 00 00 00    02 01 00 00 ff ff ff ff    02 00 00 00 01 00  84 00 00 00 00 00 00 00 (132 bytes)
AuCO   02 00 0e 00 00 00 24 00 00 00    03 01 00 00 ff ff ff ff    02 00 00 00 01 00  84 00 00 00 00 00 00 00 (132 bytes)
AuCO   02 00 0e 00 00 00 24 00 00 00    04 01 00 00 ff ff ff ff    02 00 00 00 01 00  84 00 00 00 00 00 00 00 (132 bytes)
AuCO   02 00 0e 00 00 00 24 00 00 00    05 01 00 00 ff ff ff ff    02 00 00 00 01 00  84 00 00 00 00 00 00 00 (132 bytes)
AuCO   02 00 0e 00 00 00 24 00 00 00    06 01 00 00 ff ff ff ff    02 00 00 00 01 00  84 00 00 00 00 00 00 00 (132 bytes)
AuCO   02 00 0e 00 00 00 24 00 00 00    07 01 00 00 ff ff ff ff    02 00 00 00 01 00  84 00 00 00 00 00 00 00 (132 bytes)
AuCO   02 00 0e 00 00 00 24 00 00 00    08 01 00 00 ff ff ff ff    02 00 00 00 01 00  84 00 00 00 00 00 00 00 (132 bytes)
AuCO   02 00 0e 00 00 00 24 00 00 00    09 01 00 00 ff ff ff ff    02 00 00 00 01 00  84 00 00 00 00 00 00 00 (132 bytes)
AuCO   02 00 0e 00 00 00 24 00 00 00    0a 01 00 00 ff ff ff ff    02 00 00 00 01 00  84 00 00 00 00 00 00 00 (132 bytes)
AuCO   02 00 0e 00 00 00 24 00 00 00    0b 01 00 00 ff ff ff ff    02 00 00 00 01 00  84 00 00 00 00 00 00 00 (132 bytes)
AuCO   02 00 0e 00 00 00 24 00 00 00    0c 01 00 00 ff ff ff ff    02 00 00 00 01 00  84 00 00 00 00 00 00 00 (132 bytes)
AuCO   02 00 0e 00 00 00 24 00 00 00    0d 01 00 00 ff ff ff ff    02 00 00 00 01 00  84 00 00 00 00 00 00 00 (132 bytes)
AuCO   02 00 0e 00 00 00 24 00 00 00    0e 01 00 00 ff ff ff ff    02 00 00 00 01 00  84 00 00 00 00 00 00 00 (132 bytes)
AuCO   02 00 0e 00 00 00 24 00 00 00    0f 01 00 00 ff ff ff ff    02 00 00 00 01 00  84 00 00 00 00 00 00 00 (132 bytes)
AuCO   02 00 0e 00 00 00 24 00 00 00    10 01 00 00 ff ff ff ff    02 00 00 00 01 00  84 00 00 00 00 00 00 00 (132 bytes)
AuCO   02 00 0e 00 00 00 24 00 00 00    11 01 00 00 ff ff ff ff    02 00 00 00 01 00  84 00 00 00 00 00 00 00 (132 bytes)
AuCO   02 00 0e 00 00 00 24 00 00 00    12 01 00 00 ff ff ff ff    02 00 00 00 01 00  84 00 00 00 00 00 00 00 (132 bytes)
AuCO   02 00 0e 00 00 00 24 00 00 00    13 01 00 00 ff ff ff ff    02 00 00 00 01 00  84 00 00 00 00 00 00 00 (132 bytes)
AuCO   02 00 0e 00 00 00 24 00 00 00    14 01 00 00 ff ff ff ff    02 00 00 00 01 00  84 00 00 00 00 00 00 00 (132 bytes)
AuCO   02 00 0e 00 00 00 24 00 00 00    15 01 00 00 ff ff ff ff    02 00 00 00 01 00  84 00 00 00 00 00 00 00 (132 bytes)
AuCO   02 00 0e 00 00 00 24 00 00 00    16 01 00 00 ff ff ff ff    02 00 00 00 01 00  84 00 00 00 00 00 00 00 (132 bytes)
AuCO   02 00 0e 00 00 00 24 00 00 00    17 01 00 00 ff ff ff ff    02 00 00 00 01 00  84 00 00 00 00 00 00 00 (132 bytes)
AuCO   02 00 0e 00 00 00 24 00 00 00    18 01 00 00 ff ff ff ff    02 00 00 00 01 00  84 00 00 00 00 00 00 00 (132 bytes)
AuCO   02 00 0e 00 00 00 24 00 00 00    19 01 00 00 ff ff ff ff    02 00 00 00 01 00  84 00 00 00 00 00 00 00 (132 bytes)
AuCO   02 00 0e 00 00 00 24 00 00 00    1a 01 00 00 ff ff ff ff    02 00 00 00 01 00  84 00 00 00 00 00 00 00 (132 bytes)
AuCO   02 00 0e 00 00 00 24 00 00 00    1b 01 00 00 ff ff ff ff    02 00 00 00 01 00  84 00 00 00 00 00 00 00 (132 bytes)
AuCO   02 00 0e 00 00 00 24 00 00 00    1c 01 00 00 ff ff ff ff    02 00 00 00 01 00  84 00 00 00 00 00 00 00 (132 bytes)
AuCO   02 00 0e 00 00 00 24 00 00 00    1d 01 00 00 ff ff ff ff    02 00 00 00 01 00  84 00 00 00 00 00 00 00 (132 bytes)
AuCO   02 00 0e 00 00 00 24 00 00 00    1e 01 00 00 ff ff ff ff    02 00 00 00 01 00  84 00 00 00 00 00 00 00 (132 bytes)
AuCO   02 00 0e 00 00 00 24 00 00 00    1f 01 00 00 ff ff ff ff    02 00 00 00 01 00  84 00 00 00 00 00 00 00 (132 bytes)
AuCO   02 00 0e 00 00 00 24 00 00 00    20 01 00 00 ff ff ff ff    02 00 00 00 01 00  84 00 00 00 00 00 00 00 (132 bytes)
AuCO   02 00 0e 00 00 00 24 00 00 00    21 01 00 00 ff ff ff ff    02 00 00 00 01 00  84 00 00 00 00 00 00 00 (132 bytes)
AuCO   02 00 0e 00 00 00 24 00 00 00    22 01 00 00 ff ff ff ff    02 00 00 00 01 00  84 00 00 00 00 00 00 00 (132 bytes)
AuCO   02 00 0e 00 00 00 24 00 00 00    23 01 00 00 ff ff ff ff    02 00 00 00 01 00  84 00 00 00 00 00 00 00 (132 bytes)
AuCO   02 00 0e 00 00 00 24 00 00 00    24 01 00 00 ff ff ff ff    02 00 00 00 01 00  84 00 00 00 00 00 00 00 (132 bytes)
AuCO   02 00 0e 00 00 00 24 00 00 00    25 01 00 00 ff ff ff ff    02 00 00 00 01 00  84 00 00 00 00 00 00 00 (132 bytes)
AuCO   02 00 0e 00 00 00 24 00 00 00    26 01 00 00 ff ff ff ff    02 00 00 00 01 00  84 00 00 00 00 00 00 00 (132 bytes)
AuCO   02 00 0e 00 00 00 24 00 00 00    27 01 00 00 ff ff ff ff    02 00 00 00 01 00  84 00 00 00 00 00 00 00 (132 bytes)
AuCO   02 00 0e 00 00 00 24 00 00 00    28 01 00 00 ff ff ff ff    02 00 00 00 01 00  84 00 00 00 00 00 00 00 (132 bytes)
AuCO   02 00 0e 00 00 00 24 00 00 00    29 01 00 00 ff ff ff ff    02 00 00 00 01 00  84 00 00 00 00 00 00 00 (132 bytes)
AuCO   02 00 0e 00 00 00 24 00 00 00    2a 01 00 00 ff ff ff ff    02 00 00 00 01 00  84 00 00 00 00 00 00 00 (132 bytes)
AuCO   02 00 0e 00 00 00 24 00 00 00    2b 01 00 00 ff ff ff ff    02 00 00 00 01 00  84 00 00 00 00 00 00 00 (132 bytes)
AuCO   02 00 0e 00 00 00 24 00 00 00    2c 01 00 00 ff ff ff ff    02 00 00 00 01 00  84 00 00 00 00 00 00 00 (132 bytes)
AuCO   02 00 0e 00 00 00 24 00 00 00    2d 01 00 00 ff ff ff ff    02 00 00 00 01 00  84 00 00 00 00 00 00 00 (132 bytes)
AuCO   02 00 0e 00 00 00 24 00 00 00    2e 01 00 00 ff ff ff ff    02 00 00 00 01 00  84 00 00 00 00 00 00 00 (132 bytes)
AuCO   02 00 0e 00 00 00 24 00 00 00    2f 01 00 00 ff ff ff ff    02 00 00 00 01 00  84 00 00 00 00 00 00 00 (132 bytes)
AuCO   02 00 0e 00 00 00 24 00 00 00    30 01 00 00 ff ff ff ff    02 00 00 00 01 00  84 00 00 00 00 00 00 00 (132 bytes)
AuCO   02 00 0e 00 00 00 24 00 00 00    31 01 00 00 ff ff ff ff    02 00 00 00 01 00  84 00 00 00 00 00 00 00 (132 bytes)
AuCO   02 00 0e 00 00 00 24 00 00 00    32 01 00 00 ff ff ff ff    02 00 00 00 01 00  84 00 00 00 00 00 00 00 (132 bytes)
AuCO   02 00 0e 00 00 00 24 00 00 00    33 01 00 00 ff ff ff ff    02 00 00 00 01 00  0e 00 00 00 00 00 00 00 (14 bytes)
AuCn   01 00 0e 00 00 00 28 00 00 00    ff ff ff ff ff ff ff ff    02 00 00 00 01 00  84 00 00 00 00 00 00 00 (132 bytes)
AuCO   02 00 0e 00 00 00 28 00 00 00    00 00 00 00 ff ff ff ff    02 00 00 00 01 00  0e 00 00 00 00 00 00 00 (14 bytes)
AuCn   01 00 0e 00 00 00 2c 00 00 00    ff ff ff ff ff ff ff ff    02 00 00 00 01 00  84 00 00 00 00 00 00 00 (132 bytes)
AuCO   02 00 0e 00 00 00 2c 00 00 00    00 00 00 00 ff ff ff ff    02 00 00 00 01 00  0e 00 00 00 00 00 00 00 (14 bytes)
AuCn   01 00 0e 00 00 00 30 00 00 00    ff ff ff ff ff ff ff ff    02 00 00 00 01 00  84 00 00 00 00 00 00 00 (132 bytes)
AuCO   02 00 0e 00 00 00 30 00 00 00    00 00 00 00 ff ff ff ff    02 00 00 00 01 00  0e 00 00 00 00 00 00 00 (14 bytes)
AuCn   01 00 0e 00 00 00 34 00 00 00    ff ff ff ff ff ff ff ff    02 00 00 00 01 00  84 00 00 00 00 00 00 00 (132 bytes)
AuCO   02 00 0e 00 00 00 34 00 00 00    00 00 00 00 ff ff ff ff    02 00 00 00 01 00  0e 00 00 00 00 00 00 00 (14 bytes)
AuCn   01 00 0e 00 00 00 38 00 00 00    ff ff ff ff ff ff ff ff    02 00 00 00 01 00  84 00 00 00 00 00 00 00 (132 bytes)
AuCO   02 00 0e 00 00 00 38 00 00 00    00 00 00 00 ff ff ff ff    02 00 00 00 01 00  0e 00 00 00 00 00 00 00 (14 bytes)
AuCn   01 00 0e 00 00 00 3c 00 00 00    ff ff ff ff ff ff ff ff    02 00 00 00 01 00  84 00 00 00 00 00 00 00 (132 bytes)
AuCO   02 00 0e 00 00 00 3c 00 00 00    00 00 00 00 ff ff ff ff    02 00 00 00 01 00  0e 00 00 00 00 00 00 00 (14 bytes)
AuCn   01 00 0e 00 00 00 40 00 00 00    ff ff ff ff ff ff ff ff    02 00 00 00 01 00  84 00 00 00 00 00 00 00 (132 bytes)
AuCO   02 00 0e 00 00 00 40 00 00 00    00 00 00 00 ff ff ff ff    02 00 00 00 01 00  0e 00 00 00 00 00 00 00 (14 bytes)
AuCn   01 00 0e 00 00 00 44 00 00 00    ff ff ff ff ff ff ff ff    02 00 00 00 01 00  84 00 00 00 00 00 00 00 (132 bytes)
AuCO   02 00 0e 00 00 00 44 00 00 00    00 00 00 00 ff ff ff ff    02 00 00 00 01 00  0e 00 00 00 00 00 00 00 (14 bytes)
AuCn   01 00 0e 00 00 00 78 00 00 00    ff ff ff ff ff ff ff ff    02 00 00 00 01 00  84 00 00 00 00 00 00 00 (132 bytes)
AuCO   02 00 0e 00 00 00 78 00 00 00    00 00 00 00 ff ff ff ff    02 00 00 00 01 00  0e 00 00 00 00 00 00 00 (14 bytes)
AuCn   01 00 0e 00 00 00 7c 00 00 00    ff ff ff ff ff ff ff ff    02 00 00 00 01 00  84 00 00 00 00 00 00 00 (132 bytes)
AuCO   02 00 0e 00 00 00 7c 00 00 00    00 00 00 00 ff ff ff ff    02 00 00 00 01 00  0e 00 00 00 00 00 00 00 (14 bytes)
AuCn   01 00 0e 00 00 00 80 00 00 00    ff ff ff ff ff ff ff ff    02 00 00 00 01 00  84 00 00 00 00 00 00 00 (132 bytes)
AuCO   02 00 0e 00 00 00 80 00 00 00    00 00 00 00 ff ff ff ff    02 00 00 00 01 00  0e 00 00 00 00 00 00 00 (14 bytes)
SngO   01 00 0e 00 00 00 e0 00 00 00    ff ff ff ff ff ff ff ff    02 00 00 00 01 00  8e 04 00 00 00 00 00 00 (1166 bytes)
MSeq   02 00 0e 00 00 00 e4 00 00 00    ff ff ff ff ff ff ff ff    02 00 00 00 01 00  24 01 00 00 00 00 00 00 (292 bytes)
Trak   04 00 17 00 00 00 e4 00 00 00    ff ff ff ff ff ff ff 7f    02 00 00 00 01 00  00 00 00 00 00 00 00 00 (0 bytes)
EvSq   01 00 0e 00 00 00 e4 00 00 00    04 00 00 00 ff ff ff ff    02 00 00 00 01 00  10 00 00 00 00 00 00 00 (16 bytes)
CorM   01 00 0e 00 00 00 e8 00 00 00    ff ff ff ff ff ff ff ff    02 00 00 00 01 00  ee 03 00 00 00 00 00 00 (1006 bytes)
CorM   01 00 0e 00 00 00 ec 00 00 00    ff ff ff ff ff ff ff ff    02 00 00 00 01 00  8a 03 00 00 00 00 00 00 (906 bytes)
SngO   01 00 0e 00 00 00 08 01 00 00    ff ff ff ff ff ff ff ff    02 00 00 00 01 00  20 00 00 00 00 00 00 00 (32 bytes)
Hypr   01 00 0f 00 00 00 00 00 00 00    ff ff ff ff ff ff ff ff    02 00 00 00 01 00  c8 00 00 00 00 00 00 00 (200 bytes)
Hypr   01 00 0f 00 00 00 04 00 00 00    ff ff ff ff ff ff ff ff    02 00 00 00 01 00  98 03 00 00 00 00 00 00 (920 bytes)
Hypr   01 00 0f 00 00 00 08 00 00 00    ff ff ff ff ff ff ff ff    02 00 00 00 01 00  32 18 00 00 00 00 00 00 (6194 bytes)
Envi   05 00 14 00 00 00 00 00 00 00    ff ff ff ff ff ff ff ff    02 00 00 00 01 00  b4 00 00 00 00 00 00 00 (180 bytes)
Envi   05 00 14 00 00 00 0c 00 00 00    ff ff ff ff ff ff ff ff    02 00 00 00 01 00  7a 01 00 00 00 00 00 00 (378 bytes)
Envi   05 00 14 00 00 00 10 00 00 00    ff ff ff ff ff ff ff ff    02 00 00 00 01 00  b2 00 00 00 00 00 00 00 (178 bytes)
Envi   05 00 14 00 00 00 14 00 00 00    ff ff ff ff ff ff ff ff    02 00 00 00 01 00  ba 00 00 00 00 00 00 00 (186 bytes)
Envi   05 00 14 00 00 00 18 00 00 00    ff ff ff ff ff ff ff ff    02 00 00 00 01 00  d0 00 00 00 00 00 00 00 (208 bytes)
Envi   05 00 14 00 00 00 40 00 00 00    ff ff ff ff ff ff ff ff    02 00 00 00 01 00  c2 02 00 00 00 00 00 00 (706 bytes)
Envi   05 00 14 00 00 00 44 00 00 00    ff ff ff ff ff ff ff ff    02 00 00 00 01 00  3e 01 00 00 00 00 00 00 (318 bytes)
Envi   05 00 14 00 00 00 48 00 00 00    ff ff ff ff ff ff ff ff    02 00 00 00 01 00  c6 01 00 00 00 00 00 00 (454 bytes)
Envi   05 00 14 00 00 00 4c 00 00 00    ff ff ff ff ff ff ff ff    02 00 00 00 01 00  c4 01 00 00 00 00 00 00 (452 bytes)
Envi   05 00 14 00 00 00 50 00 00 00    ff ff ff ff ff ff ff ff    02 00 00 00 01 00  c8 01 00 00 00 00 00 00 (456 bytes)
Envi   05 00 14 00 00 00 54 00 00 00    ff ff ff ff ff ff ff ff    02 00 00 00 01 00  c4 01 00 00 00 00 00 00 (452 bytes)
Envi   05 00 14 00 00 00 58 00 00 00    ff ff ff ff ff ff ff ff    02 00 00 00 01 00  c6 01 00 00 00 00 00 00 (454 bytes)
MSeq   02 00 16 00 00 00 00 00 00 00    ff ff ff ff ff ff ff ff    02 00 00 00 01 00  2c 01 00 00 00 00 00 00 (300 bytes)
Trak   04 00 17 00 00 00 00 00 00 00    ff ff ff ff ff ff ff 7f    02 00 00 00 01 00  00 00 00 00 00 00 00 00 (0 bytes)
EvSq   01 00 16 00 00 00 00 00 00 00    05 00 00 00 ff ff ff ff    02 00 00 00 01 00  50 00 00 00 00 00 00 00 (80 bytes)
MSeq   02 00 16 00 00 00 04 00 00 00    ff ff ff ff ff ff ff ff    02 00 00 00 01 00  2c 01 00 00 00 00 00 00 (300 bytes)
Trak   04 00 17 00 00 00 04 00 00 00    ff ff ff ff ff ff ff 7f    02 00 00 00 01 00  00 00 00 00 00 00 00 00 (0 bytes)
EvSq   01 00 16 00 00 00 04 00 00 00    06 00 00 00 ff ff ff ff    02 00 00 00 01 00  10 00 00 00 00 00 00 00 (16 bytes)
MSeq   02 00 17 00 00 00 00 00 00 00    ff ff ff ff ff ff ff ff    02 00 00 00 01 00  2a 01 00 00 00 00 00 00 (298 bytes)
Trak   04 00 17 00 00 00 00 00 00 00    ff ff ff ff 00 00 00 00    02 00 00 00 01 00  38 00 00 00 00 00 00 00 (56 bytes)
Trak   04 00 17 00 00 00 00 00 00 00    ff ff ff ff ff ff ff 7f    02 00 00 00 01 00  00 00 00 00 00 00 00 00 (0 bytes)
EvSq   01 00 17 00 00 00 00 00 00 00    07 00 00 00 ff ff ff ff    02 00 00 00 01 00  10 00 00 00 00 00 00 00 (16 bytes)
MSeq   02 00 17 00 00 00 04 00 00 00    ff ff ff ff ff ff ff ff    02 00 00 00 01 00  2c 01 00 00 00 00 00 00 (300 bytes)
Trak   04 00 17 00 00 00 04 00 00 00    ff ff ff ff 00 00 00 00    02 00 00 00 01 00  38 00 00 00 00 00 00 00 (56 bytes)
Trak   04 00 17 00 00 00 04 00 00 00    ff ff ff ff 01 00 00 00    02 00 00 00 01 00  38 00 00 00 00 00 00 00 (56 bytes)
Trak   04 00 17 00 00 00 04 00 00 00    ff ff ff ff ff ff ff 7f    02 00 00 00 01 00  00 00 00 00 00 00 00 00 (0 bytes)
EvSq   01 00 17 00 00 00 04 00 00 00    08 00 00 00 ff ff ff ff    02 00 00 00 01 00  10 00 00 00 00 00 00 00 (16 bytes)
MSeq   02 00 17 00 00 00 08 00 00 00    ff ff ff ff ff ff ff ff    02 00 00 00 01 00  2e 01 00 00 00 00 00 00 (302 bytes)
Trak   04 00 17 00 00 00 08 00 00 00    ff ff ff ff 00 00 00 00    02 00 00 00 01 00  38 00 00 00 00 00 00 00 (56 bytes)
Trak   04 00 17 00 00 00 08 00 00 00    ff ff ff ff 01 00 00 00    02 00 00 00 01 00  38 00 00 00 00 00 00 00 (56 bytes)
Trak   04 00 17 00 00 00 08 00 00 00    ff ff ff ff 02 00 00 00    02 00 00 00 01 00  38 00 00 00 00 00 00 00 (56 bytes)
Trak   04 00 17 00 00 00 08 00 00 00    ff ff ff ff 03 00 00 00    02 00 00 00 01 00  38 00 00 00 00 00 00 00 (56 bytes)
Trak   04 00 17 00 00 00 08 00 00 00    ff ff ff ff 04 00 00 00    02 00 00 00 01 00  38 00 00 00 00 00 00 00 (56 bytes)
Trak   04 00 17 00 00 00 08 00 00 00    ff ff ff ff 05 00 00 00    02 00 00 00 01 00  38 00 00 00 00 00 00 00 (56 bytes)
Trak   04 00 17 00 00 00 08 00 00 00    ff ff ff ff ff ff ff 7f    02 00 00 00 01 00  00 00 00 00 00 00 00 00 (0 bytes)
EvSq   01 00 17 00 00 00 08 00 00 00    09 00 00 00 ff ff ff ff    02 00 00 00 01 00  00 01 00 00 00 00 00 00 (256 bytes)
MSeq   02 00 17 00 00 00 0c 00 00 00    ff ff ff ff ff ff ff ff    02 00 00 00 01 00  36 01 00 00 00 00 00 00 (310 bytes)
Trak   04 00 17 00 00 00 0c 00 00 00    ff ff ff ff ff ff ff 7f    02 00 00 00 01 00  00 00 00 00 00 00 00 00 (0 bytes)
EvSq   01 00 17 00 00 00 0c 00 00 00    0a 00 00 00 ff ff ff ff    02 00 00 00 01 00  10 00 00 00 00 00 00 00 (16 bytes)
MSeq   02 00 17 00 00 00 10 00 00 00    ff ff ff ff ff ff ff ff    02 00 00 00 01 00  30 01 00 00 00 00 00 00 (304 bytes)
Trak   04 00 17 00 00 00 10 00 00 00    ff ff ff ff ff ff ff 7f    02 00 00 00 01 00  00 00 00 00 00 00 00 00 (0 bytes)
EvSq   01 00 17 00 00 00 10 00 00 00    0b 00 00 00 ff ff ff ff    02 00 00 00 01 00  10 00 00 00 00 00 00 00 (16 bytes)
MSeq   02 00 17 00 00 00 14 00 00 00    ff ff ff ff ff ff ff ff    02 00 00 00 01 00  30 01 00 00 00 00 00 00 (304 bytes)
Trak   04 00 17 00 00 00 14 00 00 00    ff ff ff ff ff ff ff 7f    02 00 00 00 01 00  00 00 00 00 00 00 00 00 (0 bytes)
EvSq   01 00 17 00 00 00 14 00 00 00    0c 00 00 00 ff ff ff ff    02 00 00 00 01 00  10 00 00 00 00 00 00 00 (16 bytes)
MSeq   02 00 17 00 00 00 18 00 00 00    ff ff ff ff ff ff ff ff    02 00 00 00 01 00  30 01 00 00 00 00 00 00 (304 bytes)
Trak   04 00 17 00 00 00 18 00 00 00    ff ff ff ff ff ff ff 7f    02 00 00 00 01 00  00 00 00 00 00 00 00 00 (0 bytes)
EvSq   01 00 17 00 00 00 18 00 00 00    0d 00 00 00 ff ff ff ff    02 00 00 00 01 00  10 00 00 00 00 00 00 00 (16 bytes)
MSeq   02 00 19 00 00 00 00 00 00 00    ff ff ff ff ff ff ff ff    02 00 00 00 01 00  2c 01 00 00 00 00 00 00 (300 bytes)
Trak   04 00 17 00 00 00 00 00 00 00    ff ff ff ff ff ff ff 7f    02 00 00 00 01 00  00 00 00 00 00 00 00 00 (0 bytes)
EvSq   01 00 19 00 00 00 00 00 00 00    0e 00 00 00 ff ff ff ff    02 00 00 00 01 00  10 00 00 00 00 00 00 00 (16 bytes)
472 chunks found
